{
    "annotations": {
      "list": [
        {
          "builtIn": 1,
          "datasource": "-- Grafana --",
          "enable": true,
          "hide": true,
          "iconColor": "rgba(0, 211, 255, 1)",
          "name": "Annotations & Alerts",
          "type": "dashboard"
        }
      ]
    },
    "editable": true,
    "gnetId": null,
    "graphTooltip": 0,
    "id": 16,
    "links": [],
    "panels": [
      {
        "datasource": "Prometheus",
        "description": "",
        "fieldConfig": {
          "defaults": {
            "color": {
              "mode": "thresholds"
            },
            "mappings": [
              {
                "options": {
                  "0": {
                    "color": "green",
                    "index": 0,
                    "text": "All good!"
                  },
                  "1": {
                    "color": "orange",
                    "index": 1,
                    "text": "Update soon!"
                  }
                },
                "type": "value"
              }
            ],
            "thresholds": {
              "mode": "absolute",
              "steps": [
                {
                  "color": "green",
                  "value": null
                },
                {
                  "color": "red",
                  "value": 80
                }
              ]
            }
          },
          "overrides": []
        },
        "gridPos": {
          "h": 7,
          "w": 3,
          "x": 0,
          "y": 0
        },
        "id": 10,
        "options": {
          "colorMode": "value",
          "graphMode": "area",
          "justifyMode": "auto",
          "orientation": "auto",
          "reduceOptions": {
            "calcs": [
              "lastNotNull"
            ],
            "fields": "",
            "values": false
          },
          "text": {},
          "textMode": "auto"
        },
        "pluginVersion": "8.0.1",
        "targets": [
          {
            "exemplar": true,
            "expr": "firmwareUpgradeAvailable",
            "interval": "",
            "legendFormat": "",
            "refId": "A"
          }
        ],
        "title": "Firmware Update Available",
        "type": "stat"
      },
      {
        "datasource": "Prometheus",
        "description": "",
        "fieldConfig": {
          "defaults": {
            "color": {
              "mode": "palette-classic"
            },
            "custom": {
              "axisLabel": "",
              "axisPlacement": "auto",
              "barAlignment": 0,
              "drawStyle": "line",
              "fillOpacity": 20,
              "gradientMode": "hue",
              "hideFrom": {
                "legend": false,
                "tooltip": false,
                "viz": false
              },
              "lineInterpolation": "smooth",
              "lineWidth": 1,
              "pointSize": 5,
              "scaleDistribution": {
                "type": "linear"
              },
              "showPoints": "auto",
              "spanNulls": true,
              "stacking": {
                "group": "A",
                "mode": "none"
              },
              "thresholdsStyle": {
                "mode": "off"
              }
            },
            "mappings": [],
            "thresholds": {
              "mode": "absolute",
              "steps": [
                {
                  "color": "green",
                  "value": null
                },
                {
                  "color": "red",
                  "value": 80
                }
              ]
            },
            "unit": "celsius"
          },
          "overrides": []
        },
        "gridPos": {
          "h": 7,
          "w": 6,
          "x": 3,
          "y": 0
        },
        "id": 6,
        "options": {
          "legend": {
            "calcs": [],
            "displayMode": "list",
            "placement": "bottom"
          },
          "tooltip": {
            "mode": "single"
          }
        },
        "targets": [
          {
            "exemplar": true,
            "expr": "systemTemperatureEX",
            "interval": "",
            "legendFormat": "System Temperature",
            "refId": "A"
          }
        ],
        "title": "System Temperature",
        "type": "timeseries"
      },
      {
        "datasource": "Prometheus",
        "description": "",
        "fieldConfig": {
          "defaults": {
            "color": {
              "mode": "palette-classic"
            },
            "custom": {
              "axisLabel": "",
              "axisPlacement": "auto",
              "barAlignment": 0,
              "drawStyle": "line",
              "fillOpacity": 20,
              "gradientMode": "hue",
              "hideFrom": {
                "legend": false,
                "tooltip": false,
                "viz": false
              },
              "lineInterpolation": "linear",
              "lineWidth": 1,
              "pointSize": 5,
              "scaleDistribution": {
                "type": "linear"
              },
              "showPoints": "auto",
              "spanNulls": true,
              "stacking": {
                "group": "A",
                "mode": "none"
              },
              "thresholdsStyle": {
                "mode": "off"
              }
            },
            "mappings": [],
            "thresholds": {
              "mode": "absolute",
              "steps": [
                {
                  "color": "green",
                  "value": null
                },
                {
                  "color": "red",
                  "value": 80
                }
              ]
            },
            "unit": "rotrpm"
          },
          "overrides": []
        },
        "gridPos": {
          "h": 7,
          "w": 6,
          "x": 9,
          "y": 0
        },
        "id": 8,
        "options": {
          "legend": {
            "calcs": [],
            "displayMode": "list",
            "placement": "bottom"
          },
          "tooltip": {
            "mode": "single"
          }
        },
        "targets": [
          {
            "exemplar": true,
            "expr": "avg_over_time(sysFanSpeedEX[60m])",
            "interval": "",
            "legendFormat": "System Fan Speed",
            "refId": "A"
          }
        ],
        "title": "System Fan Speed",
        "transformations": [],
        "type": "timeseries"
      },
      {
        "datasource": "Prometheus",
        "fieldConfig": {
          "defaults": {
            "color": {
              "mode": "palette-classic"
            },
            "custom": {
              "axisLabel": "",
              "axisPlacement": "auto",
              "barAlignment": 0,
              "drawStyle": "line",
              "fillOpacity": 20,
              "gradientMode": "opacity",
              "hideFrom": {
                "legend": false,
                "tooltip": false,
                "viz": false
              },
              "lineInterpolation": "linear",
              "lineWidth": 1,
              "pointSize": 5,
              "scaleDistribution": {
                "type": "linear"
              },
              "showPoints": "auto",
              "spanNulls": false,
              "stacking": {
                "group": "A",
                "mode": "none"
              },
              "thresholdsStyle": {
                "mode": "off"
              }
            },
            "mappings": [],
            "thresholds": {
              "mode": "absolute",
              "steps": [
                {
                  "color": "green",
                  "value": null
                },
                {
                  "color": "red",
                  "value": 80
                }
              ]
            }
          },
          "overrides": []
        },
        "gridPos": {
          "h": 8,
          "w": 12,
          "x": 0,
          "y": 7
        },
        "id": 12,
        "options": {
          "legend": {
            "calcs": [],
            "displayMode": "list",
            "placement": "bottom"
          },
          "tooltip": {
            "mode": "single"
          }
        },
        "targets": [
          {
            "exemplar": true,
            "expr": "rate(ifPacketsSentEX{ifDescrEX=\"0x65746830\"}[5m])",
            "interval": "",
            "legendFormat": "Sent",
            "refId": "A"
          },
          {
            "exemplar": true,
            "expr": "rate(ifPacketsReceivedEX{ifDescrEX=\"0x65746830\"}[5m])",
            "hide": false,
            "interval": "",
            "legendFormat": "Received",
            "refId": "B"
          },
          {
            "exemplar": true,
            "expr": "rate(ifErrorPacketsEX{ifDescrEX=\"0x65746830\"}[5m])",
            "hide": false,
            "interval": "",
            "legendFormat": "Error",
            "refId": "C"
          }
        ],
        "title": "Network Traffic [5m]",
        "type": "timeseries"
      },
      {
        "datasource": "Prometheus",
        "fieldConfig": {
          "defaults": {
            "color": {
              "mode": "palette-classic"
            },
            "custom": {
              "axisLabel": "",
              "axisPlacement": "auto",
              "axisSoftMax": 100,
              "axisSoftMin": 0,
              "barAlignment": 0,
              "drawStyle": "line",
              "fillOpacity": 0,
              "gradientMode": "none",
              "hideFrom": {
                "legend": false,
                "tooltip": false,
                "viz": false
              },
              "lineInterpolation": "smooth",
              "lineWidth": 1,
              "pointSize": 5,
              "scaleDistribution": {
                "type": "linear"
              },
              "showPoints": "auto",
              "spanNulls": true,
              "stacking": {
                "group": "A",
                "mode": "none"
              },
              "thresholdsStyle": {
                "mode": "off"
              }
            },
            "mappings": [],
            "thresholds": {
              "mode": "absolute",
              "steps": [
                {
                  "color": "green",
                  "value": null
                },
                {
                  "color": "red",
                  "value": 80
                }
              ]
            },
            "unit": "percent"
          },
          "overrides": []
        },
        "gridPos": {
          "h": 8,
          "w": 12,
          "x": 12,
          "y": 7
        },
        "id": 2,
        "options": {
          "legend": {
            "calcs": [],
            "displayMode": "list",
            "placement": "bottom"
          },
          "tooltip": {
            "mode": "single"
          }
        },
        "pluginVersion": "8.0.1",
        "targets": [
          {
            "exemplar": true,
            "expr": "cpuUsage",
            "interval": "",
            "legendFormat": "{{ cpuIndex }}",
            "refId": "A"
          }
        ],
        "title": "CPU Usage",
        "type": "timeseries"
      },
      {
        "datasource": "Prometheus",
        "description": "",
        "fieldConfig": {
          "defaults": {
            "color": {
              "mode": "palette-classic"
            },
            "custom": {
              "axisLabel": "",
              "axisPlacement": "auto",
              "barAlignment": 0,
              "drawStyle": "line",
              "fillOpacity": 20,
              "gradientMode": "hue",
              "hideFrom": {
                "legend": false,
                "tooltip": false,
                "viz": false
              },
              "lineInterpolation": "linear",
              "lineWidth": 2,
              "pointSize": 5,
              "scaleDistribution": {
                "type": "linear"
              },
              "showPoints": "auto",
              "spanNulls": true,
              "stacking": {
                "group": "A",
                "mode": "none"
              },
              "thresholdsStyle": {
                "mode": "off"
              }
            },
            "mappings": [],
            "thresholds": {
              "mode": "absolute",
              "steps": [
                {
                  "color": "green",
                  "value": null
                },
                {
                  "color": "red",
                  "value": 80
                }
              ]
            },
            "unit": "decbytes"
          },
          "overrides": []
        },
        "gridPos": {
          "h": 8,
          "w": 12,
          "x": 0,
          "y": 15
        },
        "id": 4,
        "options": {
          "legend": {
            "calcs": [],
            "displayMode": "list",
            "placement": "bottom"
          },
          "tooltip": {
            "mode": "single"
          }
        },
        "targets": [
          {
            "exemplar": true,
            "expr": "systemTotalMem",
            "interval": "",
            "legendFormat": "Total RAM",
            "refId": "A"
          },
          {
            "exemplar": true,
            "expr": "systemTotalMem-systemFreeMem",
            "hide": false,
            "interval": "",
            "legendFormat": "Used RAM",
            "refId": "B"
          }
        ],
        "title": "RAM Usage",
        "type": "timeseries"
      },
      {
        "datasource": "Prometheus",
        "description": "",
        "fieldConfig": {
          "defaults": {
            "color": {
              "mode": "palette-classic"
            },
            "custom": {
              "axisLabel": "",
              "axisPlacement": "auto",
              "barAlignment": 0,
              "drawStyle": "line",
              "fillOpacity": 20,
              "gradientMode": "hue",
              "hideFrom": {
                "legend": false,
                "tooltip": false,
                "viz": false
              },
              "lineInterpolation": "linear",
              "lineWidth": 2,
              "pointSize": 5,
              "scaleDistribution": {
                "type": "linear"
              },
              "showPoints": "auto",
              "spanNulls": true,
              "stacking": {
                "group": "A",
                "mode": "none"
              },
              "thresholdsStyle": {
                "mode": "off"
              }
            },
            "mappings": [],
            "thresholds": {
              "mode": "absolute",
              "steps": [
                {
                  "color": "green",
                  "value": null
                },
                {
                  "color": "red",
                  "value": 80
                }
              ]
            },
            "unit": "decbytes"
          },
          "overrides": []
        },
        "gridPos": {
          "h": 8,
          "w": 12,
          "x": 12,
          "y": 15
        },
        "id": 13,
        "options": {
          "legend": {
            "calcs": [],
            "displayMode": "list",
            "placement": "bottom"
          },
          "tooltip": {
            "mode": "single"
          }
        },
        "targets": [
          {
            "exemplar": true,
            "expr": "sysVolumeTotalSize",
            "interval": "",
            "legendFormat": "Total Storage",
            "refId": "A"
          },
          {
            "exemplar": true,
            "expr": "sysVolumeFreeSize",
            "hide": false,
            "interval": "",
            "legendFormat": "Free Storage",
            "refId": "B"
          }
        ],
        "title": "Volumes",
        "type": "timeseries"
      }
    ],
    "schemaVersion": 30,
    "style": "dark",
    "tags": [],
    "templating": {
      "list": []
    },
    "time": {
      "from": "now-6h",
      "to": "now"
    },
    "timepicker": {},
    "timezone": "",
    "title": "QNAP NAS",
    "uid": "cs1_YPmRk",
    "version": 7
  }